量的調査（第6回）
…
$var_names$mediator
[1] "M"

$var_names$outcome
[1] "Y"

$var_names$pre_cov
[1] "C"

$var_names$post_cov
[1] "L"

$data
# A tibble: 1,000 × 8
       A       C      L      M       Y   res_C   res_L weights
   <int>   <dbl>  <dbl>  <dbl>   <dbl>   <dbl>   <dbl>   <dbl>
 1     1 -0.559   0.444  0.414  4.02   -0.562   0.153        1
 2     1  0.991  -0.347 -0.108  1.67    0.988  -0.662        1
 3     0 -0.0430 -0.739 -0.506 -0.784  -0.0461 -0.762        1
 4     0  1.67   -2.12  -0.756 -2.25    1.66   -2.17         1
 5     0 -0.271  -1.38  -0.928 -0.399  -0.274  -1.40         1
 6     0  2.62    0.842 -0.490  1.74    2.61    0.777        1
 7     1  0.290   0.356  2.45   7.55    0.287   0.0519       1
 8     0 -0.0173  0.380 -0.699 -1.50   -0.0204  0.357        1
 9     1 -0.437   1.93  -0.589  1.41   -0.440   1.64         1
10     0  0.401   1.31  -0.524 -0.0746  0.397   1.28         1
# ℹ 990 more rows

$data_ed
# A tibble: 1,000 × 8
       A       C       L      M       Y   res_C   res_L weights
   <int>   <dbl>   <dbl>  <dbl>   <dbl>   <dbl>   <dbl>   <dbl>
 1     1 -0.562   0.153   0.414  4.02   -0.562   0.153        1
 2     1  0.988  -0.662  -0.108  1.67    0.988  -0.662        1
 3     0 -0.0461 -0.762  -0.506 -0.784  -0.0461 -0.762        1
 4     0  1.66   -2.17   -0.756 -2.25    1.66   -2.17         1
 5     0 -0.274  -1.40   -0.928 -0.399  -0.274  -1.40         1
 6     0  2.61    0.777  -0.490  1.74    2.61    0.777        1
 7     1  0.287   0.0519  2.45   7.55    0.287   0.0519       1
 8     0 -0.0204  0.357  -0.699 -1.50   -0.0204  0.357        1
 9     1 -0.440   1.64   -0.589  1.41   -0.440   1.64         1
10     0  0.397   1.28   -0.524 -0.0746  0.397   1.28         1
# ℹ 990 more rows
…
